-- Merging decision tree log ---
manifest
ADDED from /Users/gilzako/rn=pjt/0605_smart_iot/node_modules/react-native-smart-splash-screen/android/src/main/AndroidManifest.xml:1:1-3:12
INJECTED from /Users/gilzako/rn=pjt/0605_smart_iot/node_modules/react-native-smart-splash-screen/android/src/main/AndroidManifest.xml:1:1-3:12
INJECTED from /Users/gilzako/rn=pjt/0605_smart_iot/node_modules/react-native-smart-splash-screen/android/src/main/AndroidManifest.xml:1:1-3:12
INJECTED from /Users/gilzako/rn=pjt/0605_smart_iot/node_modules/react-native-smart-splash-screen/android/src/main/AndroidManifest.xml:1:1-3:12
INJECTED from /Users/gilzako/rn=pjt/0605_smart_iot/node_modules/react-native-smart-splash-screen/android/src/main/AndroidManifest.xml:1:1-3:12
INJECTED from /Users/gilzako/rn=pjt/0605_smart_iot/node_modules/react-native-smart-splash-screen/android/src/main/AndroidManifest.xml:1:1-3:12
INJECTED from /Users/gilzako/rn=pjt/0605_smart_iot/node_modules/react-native-smart-splash-screen/android/src/main/AndroidManifest.xml:1:1-3:12
	package
		ADDED from /Users/gilzako/rn=pjt/0605_smart_iot/node_modules/react-native-smart-splash-screen/android/src/main/AndroidManifest.xml:2:5-52
		INJECTED from /Users/gilzako/rn=pjt/0605_smart_iot/node_modules/react-native-smart-splash-screen/android/src/main/AndroidManifest.xml
		INJECTED from /Users/gilzako/rn=pjt/0605_smart_iot/node_modules/react-native-smart-splash-screen/android/src/main/AndroidManifest.xml
	android:versionName
		INJECTED from /Users/gilzako/rn=pjt/0605_smart_iot/node_modules/react-native-smart-splash-screen/android/src/main/AndroidManifest.xml
		ADDED from /Users/gilzako/rn=pjt/0605_smart_iot/node_modules/react-native-smart-splash-screen/android/src/main/AndroidManifest.xml:1:1-3:12
		INJECTED from /Users/gilzako/rn=pjt/0605_smart_iot/node_modules/react-native-smart-splash-screen/android/src/main/AndroidManifest.xml
	android:versionCode
		INJECTED from /Users/gilzako/rn=pjt/0605_smart_iot/node_modules/react-native-smart-splash-screen/android/src/main/AndroidManifest.xml
		ADDED from /Users/gilzako/rn=pjt/0605_smart_iot/node_modules/react-native-smart-splash-screen/android/src/main/AndroidManifest.xml:1:1-3:12
		INJECTED from /Users/gilzako/rn=pjt/0605_smart_iot/node_modules/react-native-smart-splash-screen/android/src/main/AndroidManifest.xml
	xmlns:android
		ADDED from /Users/gilzako/rn=pjt/0605_smart_iot/node_modules/react-native-smart-splash-screen/android/src/main/AndroidManifest.xml:1:11-69
uses-sdk
INJECTED from /Users/gilzako/rn=pjt/0605_smart_iot/node_modules/react-native-smart-splash-screen/android/src/main/AndroidManifest.xml reason: use-sdk injection requested
INJECTED from /Users/gilzako/rn=pjt/0605_smart_iot/node_modules/react-native-smart-splash-screen/android/src/main/AndroidManifest.xml
INJECTED from /Users/gilzako/rn=pjt/0605_smart_iot/node_modules/react-native-smart-splash-screen/android/src/main/AndroidManifest.xml
INJECTED from /Users/gilzako/rn=pjt/0605_smart_iot/node_modules/react-native-smart-splash-screen/android/src/main/AndroidManifest.xml
INJECTED from /Users/gilzako/rn=pjt/0605_smart_iot/node_modules/react-native-smart-splash-screen/android/src/main/AndroidManifest.xml
	android:targetSdkVersion
		INJECTED from /Users/gilzako/rn=pjt/0605_smart_iot/node_modules/react-native-smart-splash-screen/android/src/main/AndroidManifest.xml
		ADDED from /Users/gilzako/rn=pjt/0605_smart_iot/node_modules/react-native-smart-splash-screen/android/src/main/AndroidManifest.xml
		INJECTED from /Users/gilzako/rn=pjt/0605_smart_iot/node_modules/react-native-smart-splash-screen/android/src/main/AndroidManifest.xml
	android:minSdkVersion
		INJECTED from /Users/gilzako/rn=pjt/0605_smart_iot/node_modules/react-native-smart-splash-screen/android/src/main/AndroidManifest.xml
		ADDED from /Users/gilzako/rn=pjt/0605_smart_iot/node_modules/react-native-smart-splash-screen/android/src/main/AndroidManifest.xml
		INJECTED from /Users/gilzako/rn=pjt/0605_smart_iot/node_modules/react-native-smart-splash-screen/android/src/main/AndroidManifest.xml
